"magnet:?xt=urn:btih:fd24cdf9f348a8163e078ad8c0ba91042ad0ff19","Ebony Babe Free Mobile Ebony.mp4"
"magnet:?xt=urn:btih:c6e7f91e10b75f211b09ea2c8cfbafcdf3366d64","TeenFidelity.Luara.Amaral.Luscious.Luara.Hardcore.SmallTits.Allsex.Smalltits.Creampie.Ebony.MeetMyLove.mp4"
"magnet:?xt=urn:btih:00bdbf55ca5cd4b00b685b6bf28f278a406831b7","Hot Guys Fuck - Massive Hairy White Jock Vs Ebony Princess720.mp4"
"magnet:?xt=urn:btih:a1e7f55456dfeaca8e3861d0a52e89d1af0c8341","Ebony.Ballers.XXX.720p.WEB.x264-GalaXXXy[XvX]"
"magnet:?xt=urn:btih:46a3dc3e45b1603561d510bf89b822903d3ab00e","DayWithAPornstar.20.12.23.Ebony.Mystique.Big.Tits.Distraction..480p.MP4-XXX"
"magnet:?xt=urn:btih:c19139696062a52f7490994202f13c8576efa5f7","[PublicAgent] Jai James - Ebony G.I. Fucks big white cock (22.08.2017) rq.mp4"
"magnet:?xt=urn:btih:2d578b8d84f25ffaba4f52a955426dcf7340fd32","[PublicAgent] Zaawaadi - African Ebony Loves Big Cock (18.01.2021) rq.mp4"
"magnet:?xt=urn:btih:ad32f0bf6f945df50ca8275cda37567b685c5676","Jezabel Vessir - Ultra Exotic Fuck Pool Boy Bangs Busty Ebony Newcomer [1080p].mp4"
"magnet:?xt=urn:btih:229d44053c1a536f531acf3734eb1da3d468873a","CherryPimps.Ebony.21.09.22.Nicole.Kitt.XXX.1080p.MP4-WRB[rarbg]"
"magnet:?xt=urn:btih:2862e596822297660b7390c0ba35e0f2cb93b12d","Lacey.London.Masquerade.Anal.Ebony.Artporn.mp4"
"magnet:?xt=urn:btih:951b697749953e87de59a91104c143a447cd2cf1","FakeTaxi - Sexual favours from ebony minx (ft1284) 10-December-2015"
"magnet:?xt=urn:btih:58c61018af102b46edeed59b594653acc27f3963","Scarlit Scandal - Ebony Beauty Begs For More Cock (19.04.2020)_1080p.mp4"
"magnet:?xt=urn:btih:24ce365eba53e237db8804b0ed6e86eeec9c7cf8","LBO - Ebony Erotica"
"magnet:?xt=urn:btih:3f12c273dde65db23ec6dc9bc688b53613645061","CreampieEbony - Jordan Love"
"magnet:?xt=urn:btih:31195ecda27bd285302b75fbc4c31b894e3e2d5d","DevilsFilm.20.09.28.Skyler.Nicole.Ebony.Anal.Queens..480p.MP4-XXX"
"magnet:?xt=urn:btih:3dbc653bad5578ad2e1fcc8bdc8bffbd81a41b9e","HeavyOnHotties - Addisson - Skinny Ebony Teen with Huge Natural Tits - Hardcore Debut.avi"
"magnet:?xt=urn:btih:11f544b03e3d1737a67a16e50296c36be749055e","1988-The Conquest-Angela Vs. Ebony"
"magnet:?xt=urn:btih:0259a1b7afac44b71e9750cb74917b62255dd678","BrownBunnies.21.09.30.Ebony.Mystique.XXX.480p.MP4-XXX"
"magnet:?xt=urn:btih:bf924fc6909ddbc82f243d5a3f7226a9e15d16ad","Torrenting.com   -    DayWithAPornstar 20 12 23 Ebony Mystique Big Tits Distra"
"magnet:?xt=urn:btih:47b1c1d32f7e40b4c2b4e2d0ab4deab0e36b5f5f","hardx.19.04.16.noemie.bilas.ebony.anal.creampie.mp4"
"magnet:?xt=urn:btih:98c43012181423d5f35de954fd083ecae3bcba67","Double-Cock-For-Sexy-Ebony-Alexis-Tae-1080.mp4"
"magnet:?xt=urn:btih:06b79026d2e3eea8e4cc5e1e6f58c1358d8a02f4","Ebony Anal Babes (2019) HD.mp4"
"magnet:?xt=urn:btih:aa8a679fdf3a35e6c1f7c8d8deae1f723f86c71c","[DayWithAPornstar] Ebony Mystique - Facials Are For Self-Care.mp4"
"magnet:?xt=urn:btih:2e780760b92387e10cd806757d84717fac014e91","[StrandedTeens] Maya Bijou (Ebony Raver Gets Freaky in Field - 13.05.2017) rq.mp4"
"magnet:?xt=urn:btih:422ddf6b2c539b8903c577b9fa982861fe30cdd3","[DontBreakMe] Brittney White (Big Titty Ebony Chick Takes Cock - 19.07.16) rq (2k).mp4"
"magnet:?xt=urn:btih:73d0e6f8b27a1319bdc017838d201666cf39788c","TouchMyWife.20.09.24.Nia.Nacci.Shy.Ebony.Pastors.Wife.Tries.First.Big.Cock.480p.MP4-X..."
"magnet:?xt=urn:btih:3e8f9d923ecd3aa84992fddca48c5c86d6a9b720","MomXXX.16.08.15.Noemilk.Ebony.Angel.Wants.Hot.Sex.And.Oral.XXX.SD.MP4-RARBG"
"magnet:?xt=urn:btih:341514f458f89e2f245354fd95e58d2abb64bd13","Misha Cross - Pale Polish Brunette Gets All Her Holes Filled By Her Ebony Neighbor (17.05.2021)_1080p.mp4"
"magnet:?xt=urn:btih:d0ae8d793e4feb5cb275595fd2f022989bdc2228","RKPrime.19.01.03.Anya.Ivy.And.Kira.Noir.Ebony.Three.Player.Game..480p.MP4-XXX"
"magnet:?xt=urn:btih:34a919b16918eee8180975e3aace8da97648d88d","Ebony Compilation 2 [SEREBRO - Mi Mi Mi].mp4"
"magnet:?xt=urn:btih:c9693e1d9c4d2235cc9d4ea034dde68823b16369","Alexis Tae - Ebony Ballers 3 (24.07.2020)_558p.mp4"
"magnet:?xt=urn:btih:b10008a50c8fd44fa9bcb4908b1fd4689d91e12b","BrazzersExxtra.21.06.04.Demi.Sutra.And.Ebony.Mystique.XXX.480p.MP4-XXX"
"magnet:?xt=urn:btih:a7e1efcbae4d15d1474a30d2a1e1c5038bf64efd","September.Reign.Black.Cock.For.Sexy.Ebony.black.mp4"
"magnet:?xt=urn:btih:4730a6b28ee4e40a2ebe2614aa12d2c10afe60d9","CherryPimps.Ebony.21.05.21.Daya.Knight.XXX.720p.MP4-XXX"
"magnet:?xt=urn:btih:8079bf4daac9327b3beb496315c5f41297d14621","ebony-slut-wont-let-being-pregnant-stop-her-from-fucking-HI.mp4"
"magnet:?xt=urn:btih:c9f27de54d07502ae175b002e0f85da52281dd3a","BrazzersExxtra.21.05.20.Aria.Kai.And.Ebony.Mystique.Gas.Station.Glory.Hole.XXX.480p.MP4-XXX"
"magnet:?xt=urn:btih:9cda4c87a227fa9cb133d10af86d0342e5e6fd35","The Exotic Ebony Nataly Rose First Ever Creampie XXX AdultP2P"
"magnet:?xt=urn:btih:a913111f8a6aaa779377c4580f97ec74e9d41951","[FakeTaxi] Asia Rae - Ebony babe sprayed with cum (05.02.2020).mp4"
"magnet:?xt=urn:btih:ca85efa9a864a66bdc820fa3ed2ced2c23d3b175","HandsOnHardcore.21.02.16.Nataly.Gold.Ebony.Stud.Shows.Up.To.Make.Natalys.Day.XXX.SD.MP4-KLEENEX"
"magnet:?xt=urn:btih:5594df5a0d709af2ed7b64ee5c3a616cf5c86b64","Amazing Ebony Girlfriend Fucked By Friend While Boyfriend Films It.flv"
"magnet:?xt=urn:btih:9b371ff78d6ab75c9fd94d14ed8648184fc12e0f","olo@SIS001@FemaleFakeTaxi - Michelle Thorne, Sade Rose (Hot blonde driver eats ebony ass)"
"magnet:?xt=urn:btih:317c28bd173665816db1ea455056c8f739e0a2e5","ZebraGirls.21.05.29.Dixie.Lynn.And.Ebony.Mystique.XXX.1080p.MP4-WRB[XvX]"
"magnet:?xt=urn:btih:1fac03f8b1b7ec70be6da1d9036c5ae54d14a641","Brittney White - Big Titty Ebony Chick_sd.mp4"
"magnet:?xt=urn:btih:11885a934887a3b2f93728b0098ca13c081b3734","ebonysextapes.17.11.18.shay.evans.big.titty.sex.addict.mp4"
"magnet:?xt=urn:btih:f45fd0f04633a9eabbfcd00dc0eff88336a47308","Perv.Mom.Olivia.Jayy.Best.Energy.Boost.POV.Black.Ebony.Tits.Ass.Booty.BubbleButt.Butt.Doggy.Doggystyle.Backshots.CumOnAss.NoChromo.Roleplay.Interracial.mp4"
"magnet:?xt=urn:btih:560b20272db3a914458d69c332925ca163529e55","Ariana Aimes [ebony bt teen]"
"magnet:?xt=urn:btih:0a0bf8ae87092b67c90cb762f44f4390cae15d45","zara-2520durose_the-2520ebony-2520gent.m4v"
"magnet:?xt=urn:btih:4d25b89ff63db1cb374d604d9fab76dcef2d9953","EbonyBabeSeptemberReign_s01_PrinceYahshua_SeptemberReign_1080p.mp4"
"magnet:?xt=urn:btih:95afb8aa9a9b9e2669e34b8a4c81c1f69d6d5a2d","Ebony-Slim-Babe-Alexis-Tae-Takes-Balls-Deep-720.mp4"
"magnet:?xt=urn:btih:572ba3fe045c6c3ff5a8d73ed0639e9ee1aeadec","[-BrownBunnies-] Nadia Jay [-Sexy Ebony babe takes a pounding-] **NEW** 26-July-2015"
"magnet:?xt=urn:btih:e8aeb6da43c342217161123f3f550123b5da9aee","[TeenCurves] Chanell Heart - Ebony Ass Worship (24.09.2017) rq.mp4"
"magnet:?xt=urn:btih:ea9d4835a85e963b2917dea9bdf97d1cde48dc2d","BuccWild.18.05.27.Pregnant.Ebony.Suck.And.Fucked.XXX.1080p.MP4-KTR[rarbg]"
"magnet:?xt=urn:btih:27c8755929ca29da830ec8483242c93dcedc6698","NEW.RELEASE.GirlsRimming.21.10.02.Tina.Fire.After.Closing.Hours.XXX.1080p.hdporn.ghost.dailyvids.0dayporn.internallink.GirlsRimming.TinaFire.BigTits.Ebony.Fetish.Visit.pornstash.in.for.backup.of.all.links.and.other.content.mp4"
"magnet:?xt=urn:btih:7da08cab14af991d9cb9dccb60d517d90de2784c","[BigTitsRoundAsses] Anya Ivy - Ebony Amateur With A Banging Body Fucked Hardcore [1280x720] [.mp4]"
"magnet:?xt=urn:btih:2f43a4919e52370a35dd6138b7876cb12ef589fd","[ JulyJailbait.club ] - ebony girl 3yo suck white dick pthc jailbait"
"magnet:?xt=urn:btih:1c1070b21926f9c721229f1a0c4bc4f31a2db087","EBONY BABE SARAH BANKS FUCKS HER BF'S FRIEND IN THE KITCHEN.mp4"
"magnet:?xt=urn:btih:dc934cc65c93ab2b8986c306fcabde6e8e4038e7","CherryPimps.Ebony.21.11.10.Hazel.Grace.XXX.480p.MP4-XXX"