"magnet:?xt=urn:btih:0fbfa434f7ce76c230a3fa310819f9423a0c54e9","VideoHive - 3D Book Constructor"
"magnet:?xt=urn:btih:8dd0a297ba2448dc363b2ded926c552d623689cd","VideoHive - My Travelling Suitcase 19397527"
"magnet:?xt=urn:btih:9c24f9ce96dab663d288d8a1d581e3ccee37c1f1","VideoHive - Magic Fire Logo - 20833610"
"magnet:?xt=urn:btih:223e6f32ac807fd8e92a411fb2b02652d752f595","VideoHive - Premium Countdown 2in1 25133106"
"magnet:?xt=urn:btih:5ac9e4bf889478c68054066a665711be02ba4ca9","VideoHive - Emperror Of Caenards - The Fantasy Trailer - 23260158"
"magnet:?xt=urn:btih:f5e5d05e644c295fa5995c63f77c0efa78909dca","VideoHive - Social Media Lower Thirds"
"magnet:?xt=urn:btih:df64375cbda5e0b884fd183ef606f8b84a115f17","VideoHive - Wedding Photo &Video Gallery Montage 8473485"
"magnet:?xt=urn:btih:c1269bf38b9beb39e9f80c28e864dde3c150a386","VideoHive - Neon - 19515697"
"magnet:?xt=urn:btih:99c6213bc31791a3de483727de4bca89d530b986","VideoHive - Valentine's Day Love Letter - 6705648"
"magnet:?xt=urn:btih:f8e7925c12bf77083cf43460bd63982a3e2217ab","VideoHive - Typography Design Pack 26308150"
"magnet:?xt=urn:btih:ef2769fdd63975621b95d70d2a2a1ceb29366f82","VideoHive - Deep Eyes  7 in 1 logo pack 10147952"
"magnet:?xt=urn:btih:e36f4ec9dc7a41b7dd13c5f704423c641c151346","VideoHive - Glitch Titles -27801681"
"magnet:?xt=urn:btih:59f5969109a24cbbd574653d0a104f197b146311","Dynamic Opener - Videohive 22509214"
"magnet:?xt=urn:btih:39de440fa8f84db4f85393392d64ec5fd7bdbd95","VideoHive - Youtube Promotion Pack 3 21175895"
"magnet:?xt=urn:btih:99ee516b6b998c2610887d036cd032105c8bc79a","VideoHive - Creative Intro - 24120559"
"magnet:?xt=urn:btih:5796f3c2a215d44839006074a715a6e53d8c3bd8","VideoHive -18765876 Pure sport template"
"magnet:?xt=urn:btih:197d0475742058c6c28f59c7f6366a70180c8360","VideoHive - 20 Particular Presets - Magic Pack"
"magnet:?xt=urn:btih:8ff46704828a92ec282d5e9bbcd3d6b5f0692757","VideoHive - Instagram Stories - 21895564"
"magnet:?xt=urn:btih:366d3720af938e97bda9235bb25f834809b272eb","VideoHive - Handy Seamless Transitions Pack & Script v.3.0"
"magnet:?xt=urn:btih:213ee244cbb82f6e425ae90ec7af4cf662bae67e","VideoHive - 54 Medical Screens"
"magnet:?xt=urn:btih:327c8b6ab28761a3af36cecd4fa748e55af66c8e","VideoHive - Motion Titles Pack 15383395"
"magnet:?xt=urn:btih:aeb2097654473f925a0442ab7b6bcea4b68ec4f5","VideoHive - Gradient Opener 26807772"
"magnet:?xt=urn:btih:17505b2d88ca780e90b68ddbc8159082ad08bc34","VideoHive - Kids Education Promo - 32440708"
"magnet:?xt=urn:btih:d2c4a4c22bd43d939eb2391c66ebf61351e48fa1","VideoHive - Back to School - 12508402"
"magnet:?xt=urn:btih:f9b85ce2c7951f243e10f7e8c95b2788c4e7c893","VideoHive - Particles Slideshow Magical Memories 31161851"
"magnet:?xt=urn:btih:d82b32b94ad44f5438e53334612a7c566dcdbe61","VideoHive - Newspaper Titles, Urban Typography Slideshow - 8861193"
"magnet:?xt=urn:btih:72715bd37644381da094668fc83d9b849d71515e","VideoHive - Minimal Promo Slideshow Vol.1.0 26619105"
"magnet:?xt=urn:btih:c40432aebd091e413441319ce227250486a1690c","DesignOptimal.com - Videohive - Mandala Art Background Loop 25337059.zip"
"magnet:?xt=urn:btih:e62bddfa54eba8371ec85067743dff22607888b4","VideoHive - Emoji Happy Birthday - 33554697"
"magnet:?xt=urn:btih:0ee06fbf6096e5ac15fd6b726ca3cc0eeadf6b44","VideoHive - Cinematic Wedding Slideshow"
"magnet:?xt=urn:btih:202de0ed3a3af2e50568b38eb1cb7f8a10525412","VideoHive - HUD Titles FX 20177970"
"magnet:?xt=urn:btih:70773d67e6fa5d14b69866d602bad99ec34418ce","VideoHive - Smoke And Explosions VFX Transitions After Effects - 32051284"
"magnet:?xt=urn:btih:bd05cf49ec2c43ba82d1898e48bc877205a77a03","VideoHive - Wedding Essentials Pack for Premiere Pro 28150015"
"magnet:?xt=urn:btih:0e898bb5e73b831392e262f0656bf9bf582d2ce7","VideoHive - Realistic santa claus and deers - 29589232"
"magnet:?xt=urn:btih:1969fe35dffcdcf98332f757d753349c0fbc85d6","VideoHive - Happy Birthday Party Intro - 30131981"
"magnet:?xt=urn:btih:f33a5f11e77aa9bd41bcdaded800cf1821396e1d","VideoHive - Colorful Shape Transitions - 23432459"
"magnet:?xt=urn:btih:dcb6c0d93eb076df07e974197b2496078c193500","VideoHive - Drop Ink Parallax Slideshow 21461498"
"magnet:?xt=urn:btih:569cbacf93b2234999a00219c519ec5813019a71","VideoHive - Logo Mockup V.2 9123357"
"magnet:?xt=urn:btih:bede12ba14402329c10bbb5d0c890aa5a8a6a631","VideoHive - Selected Titles 2 50 Minimal Titles - 20115148"
"magnet:?xt=urn:btih:245d25843cda60fad957c8cc5e940c814dac9f61","VideoHive - Sales Graphics Pack - 31601466"
"magnet:?xt=urn:btih:2603d300acb987ed0c89f84c3eab0c073fc4cbdf","VideoHive - Underwater"
"magnet:?xt=urn:btih:4a3f18da384abc3b0805af7ddc785c80ddb14a69","VideoHive - Titles Pack 4K - 32210293"
"magnet:?xt=urn:btih:c9250b09c5a91a240c5936e759fb2177ce8445b8","VideoHive - Fire Explosion Logo & Photo Animation"
"magnet:?xt=urn:btih:065eae0e534f78eaef8bfabf7d51ba71557b4c34","VideoHive - Youtube Pack v.2 24980642"
"magnet:?xt=urn:btih:8a1345ee8956acf67e695492f434c91621292d57","VideoHive - Photo Animator - 12972961 - V6.0"
"magnet:?xt=urn:btih:b02d1dc4bf033823f906bd32de7b359cc31bccee","Videohive - Auto Moto Salon - 24924253"
"magnet:?xt=urn:btih:a2ec1796443d03accbcb40ab1dd637e6b8692e14","VideoHive - Seamless Transitions for Premiere Pro v2.1 22125468"
"magnet:?xt=urn:btih:e7bf40f623c68d1191609b414491a0b195b23780","VideoHive"
"magnet:?xt=urn:btih:aacd11739c77f1ca10a21d127f13a2052d2cc086","VideoHive - The Unique Broadcast  Show Package"
"magnet:?xt=urn:btih:316398ad862839c24316cb03d986f1290eeadb5c","VideoHive - Summer Holiday MOGRT - 32305856"
"magnet:?xt=urn:btih:51b9222999ed73b81e6a891011f0f62af1c199cf","VideoHive - History Opener 20477094"
"magnet:?xt=urn:btih:1edfcb7ac7df490d1f6888d375b9ca9a345c9e56","VideoHive - Funky Film Strip - 23848468"
"magnet:?xt=urn:btih:92e3d5af670028fa67fd6c55ff05d7f163904244","VideoHive - Kinetic Typography Slideshow 32887048"
"magnet:?xt=urn:btih:2a33e5e871a006a44d9f338f8bee7136dc9db6d0","VideoHive - Effects Pack vol.1 - 23291881"
"magnet:?xt=urn:btih:e632f137c483d5a5ef98e8bf4a15f352e5b6b71a","VideoHive - Audio Spectrum Music Visualizer 22546212"
"magnet:?xt=urn:btih:e53d6887d856f9248997052c1549ac3ba8242ad6","VideoHive - 3D Infographics Set 23635639"
"magnet:?xt=urn:btih:cdbc4db1db7c096d4fca56bcbf105b38a7a45d65","VideoHive - Believe"
"magnet:?xt=urn:btih:00666d3c30494a5a59a35d43ab5923a47c9b3dc8","VideoHive - 3D Explainer Video Kit Revolving Stage 26414078"
"magnet:?xt=urn:btih:a1bca523523ee4a03e1349119b20efb59368c65c","VideoHive - Halloween Party Invitation 34083331"
"magnet:?xt=urn:btih:801c6b86b18b6f84ecbb9a923b07eb68bf48ef85","VideoHive - Happy Birthday Presentation 32299191"
"magnet:?xt=urn:btih:260fd303706bf476e82d9204400a2edca1651f3b","VideoHive - Wedding Titles Slideshow Light Leaks 19327406"
"magnet:?xt=urn:btih:f29ec06dfab8b7c3e26cdd8dad08dbf10e0f51fc","VideoHive - Dynamic Shapes and Lines After Effects 25665250"
"magnet:?xt=urn:btih:f2436bd49f8f45c2de1b93a01bb92de2ded1f5b5","VideoHive - HUD Typo Graphics Pack"
"magnet:?xt=urn:btih:47fd717441d7105e66d46fe12b166382ecd058a0","DesignOptimal.com - Videohive - Pixel Sorting Parallax Opener - 28424649.zip"
"magnet:?xt=urn:btih:f6ed4aa5fe4183d065399ff75a6aba4e6e11d864","VideoHive - Flare Glitch Logo Mogrt 26599077"
"magnet:?xt=urn:btih:1f1bcce6f901277a205c1421575c42a55fcffbef","VideoHive - Plexus Data Stream"
"magnet:?xt=urn:btih:5ac96a1c25b475fda42c0078946463d1f0a900ba","VideoHive - Wedding Titles Kit - 100 Titles 19434063"
"magnet:?xt=urn:btih:ec95512b6b38a358c78277f8c413f8bfbc95f261","VideoHive - Kinetic Typography Intro 25081072"
"magnet:?xt=urn:btih:202d80ec7dc1000b5fd3399d26860b01fe8e6ecc","VideoHive - Creative Urban Intro 29289817"
"magnet:?xt=urn:btih:da4b72d8894dbc3dd5c156c371ed6a0e3c473fc9","VideoHive - Family Memories - Baby Photo Album - 13709995"
"magnet:?xt=urn:btih:d90081ca12a22632e8996983e91282af7f83cbb5","VideoHive - 350+ Pack Transitions, Titles, Sound FX - 21474240"
"magnet:?xt=urn:btih:12d91a4dd485cd1a5f44ae8b88399fc4a26f5451","VideoHive - Diamond Logo"
"magnet:?xt=urn:btih:4f2386d378ee210d8ae1197107e71533103a6d33","VideoHive - Happy Birthday 34059681"
"magnet:?xt=urn:btih:c937242997e4543b7007585f1cb82bfe333f35de","VideoHive - Banshees 14993221"
"magnet:?xt=urn:btih:8fb4a39f91344d2fc0728280d57e543a351b5456","VideoHive - Romantic Heart Opener - 10349877"
"magnet:?xt=urn:btih:c8c8ad0e6750c9f76887d4e152a9c2f0fe969882","VideoHive - Flourish Titles Collection"
"magnet:?xt=urn:btih:f38aae37bc6964abe953020028f03c791a751202","VideoHive - Lower Thirds - Sketch - 5705496"
"magnet:?xt=urn:btih:d5df8aa180b0be79dbd1b70079adbf134eb82010","Infographics Pack - Videohive 21573990"
"magnet:?xt=urn:btih:b1ceb6ce89252f4051f01c9173cea158dbd19bfa","DesignOptimal.com - Videohive - Glitch Effects 31240312.zip"
"magnet:?xt=urn:btih:ff1abaefe5385543393f92627b73ca34573a493f","VideoHive - Buro - Instagram Stories - for Premiere Pro 27105994"
"magnet:?xt=urn:btih:fccddac7b65045ead0807ce315ae1bbb1c318455","VideoHive - Pixel Sorting Parallax Opener 28424649"
"magnet:?xt=urn:btih:ffa3ca4e3209b5d56c8cd323238e54f589ca687e","VideoHive - The Balloon Party"
"magnet:?xt=urn:btih:53779df3aecf180884ebb339f06657aa5a2e98e4","VideoHive - Heroes Awards"
"magnet:?xt=urn:btih:64512ca05b079d8bf43ad9481c826c4d5f5974cf","VideoHive - Twitter Profile Promo 23334144"
"magnet:?xt=urn:btih:f413e08be305651e4f938d80b8b298d76afc3886","VideoHive - Kids Slideshow - 22131238"
"magnet:?xt=urn:btih:3b9ec73bf04d2c72a0516dd8c8344fd4fd74a9d3","VideoHive - Stage Lights Creator V1 22504346"
"magnet:?xt=urn:btih:60e5e9e8d1951a093d8f35223e0fe25d9b9da110","VideoHive - Action Intro - Action Opener 20254259"
"magnet:?xt=urn:btih:16e7626c2318865aa330a4b6be1aeb31e29ad9df","VideoHive - Flag Loop Maker"
"magnet:?xt=urn:btih:7c586891342c66e82b962e6be366cf3a7d6e2f92","Videohive - FCP Callouts_Torrentmac.net.rar"
"magnet:?xt=urn:btih:0f501916fed39ab7040f8c62312d8c3edb55adcd","VideoHive - Murder Mystery Suspense Trailer 32935501"
"magnet:?xt=urn:btih:94c70c27518f9c301af3b1ef98ae8cce472a95a7","VideoHive - Back to School - 24292628"
"magnet:?xt=urn:btih:c0084a17acb0dda6b63f008d2078920d34708229","VideoHive - Kids High School Presentation - 33482184"
"magnet:?xt=urn:btih:1d1fd9547faf6c7a2334e4d2caea10ad3cf99e31","VideoHive - Back to School Opener - 24411941"
"magnet:?xt=urn:btih:7538272809cf28cb96ac8aa256162ffb0e38847a","VideoHive - The Movie. Photo Slideshow 30597774"
"magnet:?xt=urn:btih:27915466a97cc15ab19f99d81c50d75a6485c169","VideoHive - Christmas Creative Memories 29622697"
"magnet:?xt=urn:btih:74cf6fe81cf4719fe205e95cde6d32068e228706","VideoHive - Painted Slideshow 31830714"
"magnet:?xt=urn:btih:334de1b83c92bd0320ef7f9fca03a53976851762","VideoHive - AE Face Tools - 24958166"
"magnet:?xt=urn:btih:37eb4a804247222077835ab468dddb336ae73e30","VideoHive - Kids Education Logo - School Intro 30003215"
"magnet:?xt=urn:btih:0e5d4b244412439a3f5c9ca98700c21c02481c40","VideoHive - Family Memories - Baby Photo Album 13709995"
"magnet:?xt=urn:btih:13571debae666eec9512fd01798253c22b97d349","VideoHive - Kids Blog Opener - 33799983"
"magnet:?xt=urn:btih:a043b671a83eb20662ded9ee599e352da28a9631","VideoHive - Old Memories (remembering) 29591467"
"magnet:?xt=urn:btih:f5ee6e23f2fc301c2253202d6030949e181ef9a4","DesignOptimal.com - Videohive - Clean Logo Pack - 20174918.zip"
"magnet:?xt=urn:btih:22a001d89c05bbce074666dda50b1fd9e1dd4f18","VideoHive - Awards Golden - 29895585"
"magnet:?xt=urn:btih:aaffcb1618f9ef9de5814dcb0185b0fe773f8873","VideoHive - Color Rush - 21797269"
"magnet:?xt=urn:btih:e03b17235920d1f28df2e39ae25fdc8f2a08350a","VideoHive - Happy Kids Kids Opener - 32232094"
"magnet:?xt=urn:btih:fcaf93b58314845931a9c91e902f24cda8badfc9","VideoHive - Vintage Slideshow Sunshine City 23068985"
"magnet:?xt=urn:btih:2a82fd9a9563bac535169bcf20444bf7b25cc699","DesignOptimal.com - Videohive - Photo Slideshow 32316360.rar"
"magnet:?xt=urn:btih:cdd7354eb8b5fe7d49a41b05f2b0c41fd24ec467","VideoHive - Analytical Studio 26317711"
"magnet:?xt=urn:btih:24eceb79fe836224a2e3652b43d62746db7e289b","VideoHive - 150 Splatter Animations + Opener - 10321894"
"magnet:?xt=urn:btih:327dac2ca33371f89b733974d2b368f2fbd6113d","VideoHive - Travel Postcard v2 - 20069651"
"magnet:?xt=urn:btih:4473df892f6afc0b2f1c2dac5e2b192596db34d9","VideoHive - History Timeline Slideshow - 22596945"
"magnet:?xt=urn:btih:8244ac05f55c103b6ad1b2c45b9573c2aa51df43","VideoHive - Gold Wedding Slideshow 28662612"
"magnet:?xt=urn:btih:51caabe5cb3eea72e145bdf6dec9292938edb95e","VideoHive - Ancient War Theme TV Series - 18281056"
"magnet:?xt=urn:btih:81a42fd90783460c1db5910d68f28ea0b6743e8f","VideoHive - Elegant Slideshow Mosaic Photo Reveal 22744632"
"magnet:?xt=urn:btih:d8df20b656a8c092af53a363affc87f5b471a57a","VideoHive - Photo Gallery 2 223741393"
"magnet:?xt=urn:btih:c4314bca5b5fe93c40140a4257f57e93aac9e0ad","VideoHive - Text Presets - Premiere Studio Plugin - 23658204"
"magnet:?xt=urn:btih:9e638ee837b813ff32cae602f25f875a0e1a796a","VideoHive - Halloween Slideshow 34152529"
"magnet:?xt=urn:btih:e9e2ab05a9af78c3546a3a8724e17d1b64cbcbfe","DesignOptimal.com - Videohive - Clean Square Logo - 31420144.zip"
"magnet:?xt=urn:btih:becbcd269813581237fbc1ba99285c2751e726ec","VideoHive - Time Of Change 21533243"
"magnet:?xt=urn:btih:c4c090f7d4bb0ba3b26c6ba0265989bf0749145e","VideoHive - The Journey"
"magnet:?xt=urn:btih:8507d338ed83fcd89c52c464320db4b242058039","VideoHive - Floral & Golden Slideshow 33630893"
"magnet:?xt=urn:btih:1c12d3c2efeb125f12a7e9f96a1656703f53ab21","Videohive - Youtube Promo - 20944839"
"magnet:?xt=urn:btih:af41b06be788662412e03e4bde3f98e8b44b785a","VideoHive - Explainer Video Toolkit 4.2 - 22594089"
"magnet:?xt=urn:btih:f037fbbe991802cd64db4ccdf7c79a09fe7eb30b","VideoHive - Technology Corporate Promo 32398518"
"magnet:?xt=urn:btih:17107d758aee2497ce631d43429b9ac348adacb5","DesignOptimal.com - Videohive - Clean Youtube Subscribe Button Pack 24416500.zip"
"magnet:?xt=urn:btih:7e228e96c67a0ce87c75e95145c7d84729a0285c","VideoHive - Infographic Maker"
"magnet:?xt=urn:btih:9133ff6da9a36f9d90f9689daf792b03e9906530","VideoHive - Birthday and Party Kit - 32948415"
"magnet:?xt=urn:btih:c83f51a4b98bc04d4efe2f8f8e4cabb987c579ac","VideoHive - Cinematic Wedding Story 30196019"
"magnet:?xt=urn:btih:639590c325f55498c3b21e011fa7d198384dcc81","VideoHive - High Speed Spinning Energy Logo - 25845184"
"magnet:?xt=urn:btih:3ceb578c197f80d549abfe6fd838a09b8b48c338","DesignOptimal.com - Videohive - Modern Typo Intro 28711941.zip"
"magnet:?xt=urn:btih:75f205e2f6bf9d6cab16246db4908c0265fea601","VideoHive - Elegant Opener 12470131"
"magnet:?xt=urn:btih:91438a08f941d18c63b877cb3469b26175137fc9","VideoHive - Hologram Businessman Screens"
"magnet:?xt=urn:btih:7881c76498fb05538cd19edca6f5c839670becdf","VideoHive - Christmas Greetings Card 22934597"
"magnet:?xt=urn:btih:05e10286313d871b464e2b4e80d6a1c2d143809a","VideoHive - Call-Out Titles Pack - 23443254"
"magnet:?xt=urn:btih:7b21be4a9834ca0d8ee37b107e27f2e10fcad8c5","Videohive Presets Pack For Premiere Pro Effects.rar"
"magnet:?xt=urn:btih:7894dd03b71e4eb1a442c6cdbabeca2dbeeec8e4","VideoHive - Happy Birthday! 8751464"
"magnet:?xt=urn:btih:bede12ba14402329c10bbb5d0c890aa5a8a6a631","VideoHive - Selected Titles 2 50 Minimal Titles - 20115148"
"magnet:?xt=urn:btih:349a1ef817acaee6feb55db0bcc5127bd1b4cb11","VideoHive - Wedding Slideshow 22739979"
"magnet:?xt=urn:btih:f9c66ee7371768ec98f6a1550fe6e5fc2508d55f","DesignOptimal.com - Videohive - Corona Virus With Alpha 26153904.zip"
"magnet:?xt=urn:btih:e87c1d4cddb138ca31b1bda65b63ee72b92c5468","VideoHive - Logo Light 4K Opening - 25223897"
"magnet:?xt=urn:btih:9289224ee5d5ac13003aa6ca25938d4064fef786","VideoHive - Clean Lines Lower Third"
"magnet:?xt=urn:btih:205721f13417057e55e7a2db7f261bccf9142034","VideoHive - Paper Notes Maker - Titles and Lower Thirds 21616486"
"magnet:?xt=urn:btih:b1d36187e9bb46b150e7fd1c3083112ee6c81a79","VideoHive - Lower Thirds - Ultimate Bundle 100+"
"magnet:?xt=urn:btih:037f74f1600becdc7b5420362d7a35e751c06c55","VideoHive - Winter Christmas Promo - 25235415"
"magnet:?xt=urn:btih:9fc71749f5b2965d638696f2ca4163cecb82391e","VideoHive - Fast Stomp Opener 29978080"
"magnet:?xt=urn:btih:1161b28fbab975ccfca833692ac3486cb790d908","VideoHive - Retro Vintage Slideshow 20935728"
"magnet:?xt=urn:btih:b0ae0cf89e3df615f1d944af2179a3ff599d4ef6","VideoHive - Kids Broadcast - 19613325"
"magnet:?xt=urn:btih:58782b7747f5cd026492b66047c6308d124b04f3","VideoHive - Innovation Technology Slideshow Promo 30833986"
"magnet:?xt=urn:btih:e548db239de52d6f13667b3cdb7f28e57c6d1073","VideoHive - Wedding Memories - 31834551"
"magnet:?xt=urn:btih:003b27a3c9c7ba826f93407bea887ee38c415c6f","VideoHive - Headlight News - 26011101"
"magnet:?xt=urn:btih:a55a0a262c465e6afecfb476e14b6c8f9b44b4ca","VideoHive - Investigation Intro - 21600612"
"magnet:?xt=urn:btih:2ed5be0af39fec904f38c45210f7017983fe52d5","VideoHive - World Travel Maps 23191952"
"magnet:?xt=urn:btih:198196ae16ce87cd3c900c6fd2a6bded89fabe9e","VideoHive - Techno Parallax Photo Opener - 26752730"
"magnet:?xt=urn:btih:8e13b608762c9785baf5ca975af698dbc41b973f","VideoHive - Text Highlighter Presets - 28871094"
"magnet:?xt=urn:btih:baa57377a3fef911da38471d8b4b9590d1f6c7d3","VideoHive - Modern Transitions  For Premiere PRO v.14 21922312"
"magnet:?xt=urn:btih:30cdb8210ef91e8cc259ef21b5bedf1035af0c2c","VideoHive - Kids Promo I Kindergarten Slideshow - 32985441"
"magnet:?xt=urn:btih:5bb41be2eb41577fa12a0009f639ee14925f5bae","VideoHive - Gravity Social Media and Broadcast Pack - 26414068"
"magnet:?xt=urn:btih:b22585fe22c7f76c0d9307c3d78dc3af346cd0c3","VideoHive - Slideshow - 20814348"
"magnet:?xt=urn:btih:b6d90767a0cbd7fd648294b71b6687f74fcd2ce1","VideoHive - Summer Photo Slideshow - Happy Moments 24292979"
"magnet:?xt=urn:btih:b5560ca348c182566723ad7e6dc85cfb119000f1","VideoHive - Create Lower Thirds 33964408"
"magnet:?xt=urn:btih:f03a0cce013d55e023e4ffeaaf333aa499900c79","VideoHive - Magic Particles 34466801"
"magnet:?xt=urn:btih:edbc90214cbd474059332006f37bab9217124335","VideoHive - 6000+ Graphics Pack - 24321544"
"magnet:?xt=urn:btih:fcb2c9695b6bc4450b1767fce132426c1bd9c21d","VideoHive - Elegant New Year Countdown - 21135444"
"magnet:?xt=urn:btih:3935d8f3096c9fd2185ab22d3cbdbae51f88f1fa","VideoHive - Rock Fest 32107712"
"magnet:?xt=urn:btih:04bf5f424746830d7fd746b94fb1a7ff24b3d2be","VideoHive - Christmas Magic Logo 2019 - 22886966"
"magnet:?xt=urn:btih:13571debae666eec9512fd01798253c22b97d349","VideoHive - Kids Blog Opener - 33799983"
"magnet:?xt=urn:btih:931ba3018c0233c5060d657dea9b597f459a167e","VideoHive - Laser Logo - 27682285"
"magnet:?xt=urn:btih:f427b1b00591245cc2b554e26a8973e802c0d385","VideoHive - Electricity Logo - 20768976"
"magnet:?xt=urn:btih:0535012500f4b2090bec69b05132abbd407e23ba","VideoHive - Romantic Photo Video Slideshow"
"magnet:?xt=urn:btih:103190948775474126f9a31406202dd99fff63fd","DesignOptimal.com - Videohive - Elegant Plexus Opener Mogrt 22688168.zip"
"magnet:?xt=urn:btih:804d3c680bcdacaca0db74a85ef13f39f4f246ff","VideoHive - TypeX - Text Animation Tool  VOL.05 Broadcast Titles Pack"
"magnet:?xt=urn:btih:22a001d89c05bbce074666dda50b1fd9e1dd4f18","VideoHive - Awards Golden - 29895585"
"magnet:?xt=urn:btih:dffd29f44d791a0860e3f864190356b80c6a4c68","VideoHive - This Is Slideshow - 23649519"
"magnet:?xt=urn:btih:96de6fe3298161b143b4e2f8a1d81bad7ad5e7b5","VideoHive - Realtor Real Estate Agent And Developer 26739976"
"magnet:?xt=urn:btih:54f5ca2536de6a124223ed0ed6887876cece329f","VideoHive - Golden & Silver Liquid Logo Reveal 25173792"
"magnet:?xt=urn:btih:00c168c3fe55416171c2d968ea80f08b618edf24","VideoHive - Memories Slideshow Photo 31644157"
"magnet:?xt=urn:btih:7c0d31f7aa4621e037ffe32aea42eb832a6e9ff0","VideoHive - Simply Elegant Slideshow"
"magnet:?xt=urn:btih:31d7face71d8474bc7010d657bcb739118f41994","VideoHive - Fireworks 23811821"
"magnet:?xt=urn:btih:b1d36187e9bb46b150e7fd1c3083112ee6c81a79","VideoHive - Lower Thirds - Ultimate Bundle 100+"
"magnet:?xt=urn:btih:bdae6cb043e85931606a4bd5f33dd0388b78d082","VideoHive - 2017 New Year Countdown"
"magnet:?xt=urn:btih:f341451c9016b404a4a5bf521f17bcd5473b40d7","VideoHive - Happy Birthday Opener 31642133"
"magnet:?xt=urn:btih:aaa5ec9752a13071ad10322130b0b4b10362dc8f","VideoHive - Callout Pack - 19308504"
"magnet:?xt=urn:btih:759a7d195b264abb8ee63bcdd7d79ff00925b7e2","VideoHive - Transitions - Fire And Smoke 33753468"
"magnet:?xt=urn:btih:4ad901686c5987d4e3f2f99fa2b67fc4544c9bb4","VideoHive - Happy Kids Promo Slideshow I MOGRT - 30264398"
"magnet:?xt=urn:btih:a8b16c454eb1f813acddfe37dbc703d7371021d4","VideoHive - Wedding Roses"
"magnet:?xt=urn:btih:dc6928be43049a6a1848b3e64f2f709a1344103d","VideoHive - Colorful Brush Slideshow - 23674567"
"magnet:?xt=urn:btih:f49110698580ebb648186f97ae253cb3a67f4278","VideoHive - Bright Happy Birthday 34508217"
"magnet:?xt=urn:btih:07db72f69bd5ed7e7250e9249e388a3129527fd8","VideoHive - Party Slideshow 19568639"
"magnet:?xt=urn:btih:32558909fe3d278139e437cf5f4b48b67cd5b554","VideoHive - Minimal Tropical Slideshow - 25855642"
"magnet:?xt=urn:btih:b01f1f7369342f9b62c678440dfea99d73b15038","VideoHive - Neon TV Broadcast Package"
"magnet:?xt=urn:btih:4e7196483821365aaab2529f8b7a8446f004acef","VideoHive - Renom - Fashion Event Package 11735696"
"magnet:?xt=urn:btih:a3bddca07b677ac68d6dbb502e8a59a853f13018","VideoHive - Air Slideshow 12936556"
"magnet:?xt=urn:btih:304f379d44ff78dff3efc4ca0f4c759f963f75b5","VideoHive - HUD UI Infographics Pack 800+  19616723"
"magnet:?xt=urn:btih:f85a03ecd6e1a4e389bea8a23fadbeebdd720c47","VideoHive - LUTs Color Presets Pack Cinematic Looks  v.7 23392018"
"magnet:?xt=urn:btih:aa1367e96fefa7907e85a7cfce89a4eebe9bf29a","VideoHive - Multipurpose Clean 3D Text to Logo 8430709"
"magnet:?xt=urn:btih:8e3030b829464d290e5cd98d4eb4e8f78f87de84","VideoHive - Traveling Memories Photo Album - 31819269"
"magnet:?xt=urn:btih:32adae708b810be49a4bd2b5ec21d189c369baf5","VideoHive - Family Memories - Kids Photo Album - 32142085"
"magnet:?xt=urn:btih:2e4dff2258d4bc281b1e7f7c4e6fc9e27486c521","VideoHive - Epic Logo"
"magnet:?xt=urn:btih:c556c5b51aa9cf7eabdf27ed5ff1f963fec926dc","VideoHive - Happy Colors"
"magnet:?xt=urn:btih:e9ec761112be80ae6c8daf416c34ace300654457","VideoHive - Animal Cartoon Paint"
"magnet:?xt=urn:btih:19fc3ddb39de10cd51a4e1690e32d6125230030f","DesignOptimal.com - Videohive - Cyber City Logo - 28856149.zip"
"magnet:?xt=urn:btih:074ffb5bae0477f81e8b443549b52efa657f4335","VideoHive - Water splash pack 02 9809537"
"magnet:?xt=urn:btih:ee6217f8a1c1bb2975c20f86aadb087a6c26295d","VideoHive - DJ Disco Night Club Intro 25795026"
"magnet:?xt=urn:btih:034fad00ee45e9ee9774b67dc41a99879ea05f59","VideoHive - 900 Typography & Titles - 22373301"
"magnet:?xt=urn:btih:ce41f4e067e9370a39c65e6452984c4f0e39cc07","VideoHive"
"magnet:?xt=urn:btih:66d54988c8bc763234dabc0e1ab6db0ef574581d","VideoHive - The Five Heroes Cinematic Title - 24964321"
"magnet:?xt=urn:btih:2d766d50b7c8bcdf826d446ca0a7dceaf20ed927","VideoHive - Epic Parallax Cinematic Slideshow"
"magnet:?xt=urn:btih:f9a5ffb3795a1b5de08401494ca6d8ea1a40e790","VideoHive - Sweet Moments of Kids Life - 33994297"
"magnet:?xt=urn:btih:305be7ae83c4924fafaeb348918124ddf4fa682f","VideoHive - Audio Visualizers Pack 28006092"
"magnet:?xt=urn:btih:c4bfde16e2006616a574a4fd52b6c4dc3c16f435","VideoHive - Cartoon Eyes Pack - 25676073"
"magnet:?xt=urn:btih:0acf426b19a968bd4299f81b8dace43252836f6d","VideoHive - Fashion Instagram Stories 24864714"
"magnet:?xt=urn:btih:a7e9dcc0ece1084e8e474007378f429d85d1ec04","VideoHive - VJ Distorted Lights (4K Set 3) - 18061308"
"magnet:?xt=urn:btih:3deb5bde66b56d09224234cccbc69c985cf939d9","VideoHive - Phone X - App Presentation 22471322"
"magnet:?xt=urn:btih:894ca074f8cd3e250ede745be29e789f0594655d","VideoHive - Merry Christmas and a Happy New Year Slideshow - 25194925"
"magnet:?xt=urn:btih:f33df3023b7faa17884e67dee3262518e95e5df1","VideoHive - Happy Birthday Photo Slideshow - 32669856"
"magnet:?xt=urn:btih:1d0f0545a47e3c1983f1a37a803c11052aa1972d","VideoHive - Simplex Infographic Bundle"
"magnet:?xt=urn:btih:11ff879430ab981983329f2db624968265be5daa","VideoHive - Horse Particle Trails Logo 24767785"
"magnet:?xt=urn:btih:4240c7bb8a768a1e47edffff9052c7d20c2f4511","DesignOptimal.com - Videohive Halloween Party Titles 22742251.zip"
"magnet:?xt=urn:btih:e00587d93583a19bd3e7f04cb727d9085e21a4f0","VideoHive - Grunge Movie Opener 4571134"
"magnet:?xt=urn:btih:86e4de300f580aff346f23113b20681bc7bf1bf8","VideoHive - Youtube Essential Pack 30928023"
"magnet:?xt=urn:btih:cf3e22e2dd83abbcf5793c1fb874460adc958c1c","VideoHive - 3D Photo Maker - The Script"
"magnet:?xt=urn:btih:788ca26504b568000782b53e393e60cfa1a6c67c","VideoHive - Investigation 20360827"
"magnet:?xt=urn:btih:79c9882f53e8b63d3bc0381ef0e64149531a8559","Videohive - Neon Sign Creator"
"magnet:?xt=urn:btih:79ee6548d27d14720ee10e7077d98ff56778630a","VideoHive - Big Pack of Typography Atom 23584216"
"magnet:?xt=urn:btih:9658021e90553d7b4c24d5cdd9c1125128602e9b","VideoHive - Instagram Slideshow 10480900"
"magnet:?xt=urn:btih:3b2b7e3a75ce926fe072cc7b1ce19ad47824ebc3","VideoHive - Youtube Creators Pack - 31232789"
"magnet:?xt=urn:btih:2002d9eab33002ebfa303a37132ccae7f47103c8","VideoHive - Museum And Art Gallery Slideshow - 30881508"
"magnet:?xt=urn:btih:7ce2fe83e568fc186b3dab4dfaf5f3b5a7c752c7","VideoHive - Elegant Gold - 25272517"
"magnet:?xt=urn:btih:60c402cbe0708f271766f76087fb753368fb0ae6","VideoHive - Memories Photo Gallery 31794896"
"magnet:?xt=urn:btih:3b9ec73bf04d2c72a0516dd8c8344fd4fd74a9d3","VideoHive - Stage Lights Creator V1 22504346"
"magnet:?xt=urn:btih:ce6dd1b8ed5e1c65da599123ae28f6c9d8debd05","VideoHive - 8mm Slideshow Creator Tool For Vintage Film Look 7450527"
"magnet:?xt=urn:btih:417b65a9e134ee9fa1344ad852060ac3e04605a6","DesignOptimal.com - Videohive - Animated Typography - For Premiere Pro 28384060.zip"
"magnet:?xt=urn:btih:fcfe6512d5f5c338f15665a5d2b5caa32eb15c9b","VideoHive - Universal Calendar 19677393"
"magnet:?xt=urn:btih:ec481e3d2481bd81cca3ee220b45e24f9246c7a0","VideoHive - Change Your World - 4896084"
"magnet:?xt=urn:btih:3d57b53955ca1b0b8814f0288a1fd0edbd71dea4","VideoHive - Kids opener v4 - 8723772"
"magnet:?xt=urn:btih:f982b32b830711268e6144d15559dc1f4992b989","VideoHive - Photo Gallery - Forest 14419270"
"magnet:?xt=urn:btih:5781849c9c9ad87ba27646ddb2e92321baac29d8","VideoHive - Fantasy Trailer 2 - 21369633"
"magnet:?xt=urn:btih:64108d1d760bb4b613f4fc7603f5cc0bcdea5abb","VideoHive - VHS PACK - 24750066"
"magnet:?xt=urn:btih:f33df3023b7faa17884e67dee3262518e95e5df1","VideoHive - Happy Birthday Photo Slideshow - 32669856"
"magnet:?xt=urn:btih:445a83066b7cae366230eb0d11cb5cf97702c3db","VideoHive - Character Animation Explainer Toolkit - 23819644"
"magnet:?xt=urn:btih:489360c7f30aa1081feba017b9734e87b33808e9","VideoHive - The Memories - Cinematic Slideshow - 26477737"
